{"count":363,"next":"https://ll.thespacedevs.com/2.2.0/launch/upcoming/?limit=10&mode=list&offset=10","previous":null,"results":[{"id":"e1079d3a-c0a6-4b42-bc1d-92e48a5a78fc","url":"https://ll.thespacedevs.com/2.2.0/launch/e1079d3a-c0a6-4b42-bc1d-92e48a5a78fc/","slug":"falcon-9-block-5-starlink-group-17-39","name":"Falcon 9 Block 5 | Starlink Group 17-39","status":{"id":1,"name":"Go for Launch","abbrev":"Go","description":"Current T-0 confirmed by official or reliable sources."},"last_updated":"2026-07-20T13:23:29Z","net":"2026-07-20T14:49:32Z","net_precision":{"id":0,"name":"Second","abbrev":"SEC","description":"The T-0 is accurate to the second."},"window_end":"2026-07-20T18:00:00Z","window_start":"2026-07-20T14:00:00Z","lsp_name":"SpaceX","mission":"Starlink Group 17-39","mission_type":"Communications","pad":"Space Launch Complex 4E","location":"Vandenberg SFB, CA, USA","landing":null,"landing_success":null,"launcher":null,"orbit":null,"image":"https://thespacedevs-prod.nyc3.digitaloceanspaces.com/media/images/falcon2520925_image_20221009234147.png","infographic":null,"type":"list"},{"id":"0f6780cf-edae-4d7c-99d6-ce7de784d140","url":"https://ll.thespacedevs.com/2.2.0/launch/0f6780cf-edae-4d7c-99d6-ce7de784d140/","slug":"falcon-9-block-5-mrv-1","name":"Falcon 9 Block 5 | MRV-1","status":{"id":1,"name":"Go for Launch","abbrev":"Go","description":"Current T-0 confirmed by official or reliable sources."},"last_updated":"2026-07-20T09:03:02Z","net":"2026-07-21T21:15:00Z","net_precision":{"id":1,"name":"Minute","abbrev":"MIN","description":"The T-0 is accurate to the minute."},"window_end":"2026-07-22T01:04:00Z","window_start":"2026-07-21T21:15:00Z","lsp_name":"SpaceX","mission":"MRV-1","mission_type":"Mission Extension","pad":"Space Launch Complex 40","location":"Cape Canaveral SFS, FL, USA","landing":null,"landing_success":null,"launcher":null,"orbit":null,"image":"https://thespacedevs-prod.nyc3.digitaloceanspaces.com/media/images/falcon_9_image_20230807133459.jpeg","infographic":null,"type":"list"},{"id":"d8eb4b68-5307-4b3b-b585-5598958defc2","url":"https://ll.thespacedevs.com/2.2.0/launch/d8eb4b68-5307-4b3b-b585-5598958defc2/","slug":"gravity-1-unknown-payload","name":"Gravity-1 | Unknown Payload","status":{"id":1,"name":"Go for Launch","abbrev":"Go","description":"Current T-0 confirmed by official or reliable sources."},"last_updated":"2026-07-16T05:14:54Z","net":"2026-07-22T02:50:00Z","net_precision":{"id":2,"name":"Hour","abbrev":"HR","description":"The T-0 is accurate to the hour."},"window_end":"2026-07-22T03:09:00Z","window_start":"2026-07-22T02:44:00Z","lsp_name":"Orienspace Technology","mission":"Unknown Payload","mission_type":"Unknown","pad":"Yellow Sea (launch location 5)","location":"Haiyang Oriental Spaceport","landing":null,"landing_success":null,"launcher":null,"orbit":null,"image":"https://thespacedevs-prod.nyc3.digitaloceanspaces.com/media/images/gravity-1_image_20240108105446.jpeg","infographic":null,"type":"list"},{"id":"5421e43a-1623-40ac-9dac-201075064e24","url":"https://ll.thespacedevs.com/2.2.0/launch/5421e43a-1623-40ac-9dac-201075064e24/","slug":"long-march-3be-unknown-payload","name":"Long March 3B/E | Unknown Payload","status":{"id":1,"name":"Go for Launch","abbrev":"Go","description":"Current T-0 confirmed by official or reliable sources."},"last_updated":"2026-07-17T04:40:36Z","net":"2026-07-23T12:00:00Z","net_precision":{"id":2,"name":"Hour","abbrev":"HR","description":"The T-0 is accurate to the hour."},"window_end":"2026-07-23T12:54:00Z","window_start":"2026-07-23T11:52:00Z","lsp_name":"China Aerospace Science and Technology Corporation","mission":"Unknown Payload","mission_type":"Unknown","pad":"Launch Complex 2 (LC-2)","location":"Xichang Satellite Launch Center, People's Republic of China","landing":null,"landing_success":null,"launcher":null,"orbit":null,"image":"https://thespacedevs-prod.nyc3.digitaloceanspaces.com/media/images/long2520march_image_20230907120240.jpeg","infographic":null,"type":"list"},{"id":"ac897b9f-44d2-4ff4-8416-1a0a076e98a2","url":"https://ll.thespacedevs.com/2.2.0/launch/ac897b9f-44d2-4ff4-8416-1a0a076e98a2/","slug":"starship-flight-13","name":"Starship | Flight 13","status":{"id":1,"name":"Go for Launch","abbrev":"Go","description":"Current T-0 confirmed by official or reliable sources."},"last_updated":"2026-07-19T22:20:34Z","net":"2026-07-23T22:45:00Z","net_precision":{"id":1,"name":"Minute","abbrev":"MIN","description":"The T-0 is accurate to the minute."},"window_end":"2026-07-24T00:15:00Z","window_start":"2026-07-23T22:45:00Z","lsp_name":"SpaceX","mission":"Flight 13","mission_type":"Test Flight","pad":"Orbital Launch Pad 2","location":"SpaceX Starbase, TX, USA","landing":null,"landing_success":null,"launcher":null,"orbit":null,"image":"https://thespacedevs-prod.nyc3.digitaloceanspaces.com/media/images/starship_on_the_image_20250111100520.jpg","infographic":null,"type":"list"},{"id":"fa42624c-1e30-4b4b-a06b-59b6153bc4e5","url":"https://ll.thespacedevs.com/2.2.0/launch/fa42624c-1e30-4b4b-a06b-59b6153bc4e5/","slug":"kinetica-1-unknown-payload","name":"Kinetica 1 | Unknown Payload","status":{"id":1,"name":"Go for Launch","abbrev":"Go","description":"Current T-0 confirmed by official or reliable sources."},"last_updated":"2026-07-19T08:22:20Z","net":"2026-07-23T23:30:00Z","net_precision":{"id":2,"name":"Hour","abbrev":"HR","description":"The T-0 is accurate to the hour."},"window_end":"2026-07-23T23:50:00Z","window_start":"2026-07-23T23:24:00Z","lsp_name":"CAS Space","mission":"Unknown Payload","mission_type":"Unknown","pad":"Launch Area 130","location":"Jiuquan Satellite Launch Center, People's Republic of China","landing":null,"landing_success":null,"launcher":null,"orbit":null,"image":"https://thespacedevs-prod.nyc3.digitaloceanspaces.com/media/images/zhongke-1a_image_20220912002218.png","infographic":null,"type":"list"},{"id":"5b2f05d7-9052-49fb-9bd7-2a05d4910576","url":"https://ll.thespacedevs.com/2.2.0/launch/5b2f05d7-9052-49fb-9bd7-2a05d4910576/","slug":"falcon-9-block-5-starlink-group-17-51","name":"Falcon 9 Block 5 | Starlink Group 17-51","status":{"id":1,"name":"Go for Launch","abbrev":"Go","description":"Current T-0 confirmed by official or reliable sources."},"last_updated":"2026-07-13T15:20:31Z","net":"2026-07-24T14:00:00Z","net_precision":{"id":1,"name":"Minute","abbrev":"MIN","description":"The T-0 is accurate to the minute."},"window_end":"2026-07-24T18:00:00Z","window_start":"2026-07-24T14:00:00Z","lsp_name":"SpaceX","mission":"Starlink Group 17-51","mission_type":"Communications","pad":"Space Launch Complex 4E","location":"Vandenberg SFB, CA, USA","landing":null,"landing_success":null,"launcher":null,"orbit":null,"image":"https://thespacedevs-prod.nyc3.digitaloceanspaces.com/media/images/falcon2520925_image_20221009234147.png","infographic":null,"type":"list"},{"id":"e7e55b53-6f69-4c22-9fc5-df00df653a3f","url":"https://ll.thespacedevs.com/2.2.0/launch/e7e55b53-6f69-4c22-9fc5-df00df653a3f/","slug":"falcon-9-block-5-starlink-group-17-52","name":"Falcon 9 Block 5 | Starlink Group 17-52","status":{"id":1,"name":"Go for Launch","abbrev":"Go","description":"Current T-0 confirmed by official or reliable sources."},"last_updated":"2026-07-16T20:06:31Z","net":"2026-07-28T02:00:00Z","net_precision":{"id":1,"name":"Minute","abbrev":"MIN","description":"The T-0 is accurate to the minute."},"window_end":"2026-07-28T06:00:00Z","window_start":"2026-07-28T02:00:00Z","lsp_name":"SpaceX","mission":"Starlink Group 17-52","mission_type":"Communications","pad":"Space Launch Complex 4E","location":"Vandenberg SFB, CA, USA","landing":null,"landing_success":null,"launcher":null,"orbit":null,"image":"https://thespacedevs-prod.nyc3.digitaloceanspaces.com/media/images/falcon2520925_image_20221009234147.png","infographic":null,"type":"list"},{"id":"beac6ac1-97dd-4eb2-912c-8b4d4d15cd4e","url":"https://ll.thespacedevs.com/2.2.0/launch/beac6ac1-97dd-4eb2-912c-8b4d4d15cd4e/","slug":"long-march-7a-unknown-payload","name":"Long March 7A | Unknown Payload","status":{"id":1,"name":"Go for Launch","abbrev":"Go","description":"Current T-0 confirmed by official or reliable sources."},"last_updated":"2026-07-20T12:24:28Z","net":"2026-07-29T11:50:00Z","net_precision":{"id":2,"name":"Hour","abbrev":"HR","description":"The T-0 is accurate to the hour."},"window_end":"2026-07-29T13:39:00Z","window_start":"2026-07-29T11:42:00Z","lsp_name":"China Aerospace Science and Technology Corporation","mission":"Unknown Payload","mission_type":"Unknown","pad":"201","location":"Wenchang Space Launch Site, People's Republic of China","landing":null,"landing_success":null,"launcher":null,"orbit":null,"image":"https://thespacedevs-prod.nyc3.digitaloceanspaces.com/media/images/cz-7a_launch_2_image_20251206093324.jpeg","infographic":null,"type":"list"},{"id":"599ba2df-7483-4b2f-a083-2b5ddc06e069","url":"https://ll.thespacedevs.com/2.2.0/launch/599ba2df-7483-4b2f-a083-2b5ddc06e069/","slug":"electron-loxsat-1","name":"Electron | LOXSAT 1","status":{"id":2,"name":"To Be Determined","abbrev":"TBD","description":"Current date is a placeholder or rough estimation based on unreliable or interpreted sources."},"last_updated":"2026-07-12T22:24:01Z","net":"2026-07-31T00:00:00Z","net_precision":{"id":7,"name":"Month","abbrev":"M","description":"The T-0 is expected in the given month."},"window_end":"2026-07-31T00:00:00Z","window_start":"2026-07-31T00:00:00Z","lsp_name":"Rocket Lab","mission":"LOXSAT 1","mission_type":"Technology","pad":"Unknown Pad","location":"Rocket Lab Launch Complex 1, Mahia Peninsula, New Zealand","landing":null,"landing_success":null,"launcher":null,"orbit":null,"image":"https://thespacedevs-prod.nyc3.digitaloceanspaces.com/media/images/electron_image_20190705175640.jpeg","infographic":null,"type":"list"}]}